[gd_scene load_steps=5 format=2]

[ext_resource path="res://Assets/Fonts/MoriaCitadel.TTF" type="DynamicFontData" id=1]
[ext_resource path="res://Scenes/loseModal.gd" type="Script" id=2]

[sub_resource type="DynamicFont" id=1]
size = 64
font_data = ExtResource( 1 )

[sub_resource type="DynamicFont" id=2]
size = 32
font_data = ExtResource( 1 )

[node name="Lose Modal" type="ColorRect"]
self_modulate = Color( 1, 1, 1, 0.666667 )
anchor_left = 0.5
anchor_top = 0.5
anchor_right = 0.5
anchor_bottom = 0.5
margin_left = -621.0
margin_top = -304.0
margin_right = 621.0
margin_bottom = 304.0
color = Color( 0.172549, 1, 0, 0.635294 )
script = ExtResource( 2 )
__meta__ = {
"_edit_use_anchors_": false
}

[node name="Label" type="Label" parent="."]
anchor_left = 0.5
anchor_top = 0.5
anchor_right = 0.5
anchor_bottom = 0.5
margin_left = -224.0
margin_top = -220.0
margin_right = 231.0
margin_bottom = -140.0
custom_fonts/font = SubResource( 1 )
text = "You Lost!"
align = 1
valign = 1
__meta__ = {
"_edit_use_anchors_": false
}

[node name="Return to Main Menu" type="LinkButton" parent="."]
anchor_left = 0.5
anchor_top = 0.5
anchor_right = 0.5
anchor_bottom = 0.5
margin_left = -256.5
margin_top = -54.0
margin_right = 256.5
margin_bottom = -13.0
custom_fonts/font = SubResource( 2 )
custom_colors/font_color = Color( 1, 1, 1, 1 )
custom_colors/font_color_hover = Color( 0.835294, 0.835294, 0.835294, 1 )
custom_colors/font_color_pressed = Color( 0.282353, 0.282353, 0.282353, 1 )
text = "Return to Main Menu"
underline = 2
__meta__ = {
"_edit_use_anchors_": false
}

[node name="Quit" type="LinkButton" parent="."]
anchor_left = 0.5
anchor_top = 0.5
anchor_right = 0.5
anchor_bottom = 0.5
margin_left = -54.5
margin_top = 46.0
margin_right = 54.5
margin_bottom = 87.0
grow_horizontal = 0
grow_vertical = 0
focus_mode = 2
custom_fonts/font = SubResource( 2 )
custom_colors/font_color = Color( 1, 1, 1, 1 )
custom_colors/font_color_hover = Color( 0.835294, 0.835294, 0.835294, 1 )
custom_colors/font_color_pressed = Color( 0.282353, 0.282353, 0.282353, 1 )
text = "Quit"
underline = 2
__meta__ = {
"_edit_use_anchors_": false
}

[connection signal="pressed" from="Return to Main Menu" to="." method="_on_LinkButton_pressed"]
[connection signal="pressed" from="Quit" to="." method="_on_LinkButton2_pressed"]
